transcript
vcom
vcom
vlog -reportprogress 300 -work work /home/quangphan2903/TUNI/Cadence/systemverilog/SystemVerilog/lab04-ctrl/control.sv
# Model Technology ModelSim - Intel FPGA Edition vlog 2020.1_3 Compiler 2020.04 Apr 27 2020
# Start time: 12:49:13 on Jan 02,2021
# vlog -reportprogress 300 -work work /home/quangphan2903/TUNI/Cadence/systemverilog/SystemVerilog/lab04-ctrl/control.sv 
# ** Error: /home/quangphan2903/TUNI/Cadence/systemverilog/SystemVerilog/lab04-ctrl/control.sv(14): (vlog-13006) Could not find the package (typedefs).  Design read will continue, but expect a cascade of errors after this failure.  Furthermore if you experience a vopt-7 error immediately before this error then please check the package names or the library search paths on the command line.
# ** Error: (vlog-13069) /home/quangphan2903/TUNI/Cadence/systemverilog/SystemVerilog/lab04-ctrl/control.sv(24): near "opcode": syntax error, unexpected IDENTIFIER, expecting ')'.
# End time: 12:49:14 on Jan 02,2021, Elapsed time: 0:00:01
# Errors: 2, Warnings: 0
vlog -reportprogress 300 -work work /home/quangphan2903/TUNI/Cadence/systemverilog/SystemVerilog/lab04-ctrl/control_test.sv
# Model Technology ModelSim - Intel FPGA Edition vlog 2020.1_3 Compiler 2020.04 Apr 27 2020
# Start time: 12:49:14 on Jan 02,2021
# vlog -reportprogress 300 -work work /home/quangphan2903/TUNI/Cadence/systemverilog/SystemVerilog/lab04-ctrl/control_test.sv 
# -- Compiling module control_test
# ** Error: /home/quangphan2903/TUNI/Cadence/systemverilog/SystemVerilog/lab04-ctrl/control_test.sv(18): (vlog-13006) Could not find the package (typedefs).  Design read will continue, but expect a cascade of errors after this failure.  Furthermore if you experience a vopt-7 error immediately before this error then please check the package names or the library search paths on the command line.
# ** Error: /home/quangphan2903/TUNI/Cadence/systemverilog/SystemVerilog/lab04-ctrl/control_test.sv(53): (vlog-2730) Undefined variable: 'opcode_t'.
# End time: 12:49:14 on Jan 02,2021, Elapsed time: 0:00:00
# Errors: 2, Warnings: 0
vlog -reportprogress 300 -work work /home/quangphan2903/TUNI/Cadence/systemverilog/SystemVerilog/lab04-ctrl/typedefs.sv
# Model Technology ModelSim - Intel FPGA Edition vlog 2020.1_3 Compiler 2020.04 Apr 27 2020
# Start time: 12:49:14 on Jan 02,2021
# vlog -reportprogress 300 -work work /home/quangphan2903/TUNI/Cadence/systemverilog/SystemVerilog/lab04-ctrl/typedefs.sv 
# -- Compiling package typedefs
# 
# Top level modules:
# 	--none--
# End time: 12:49:14 on Jan 02,2021, Elapsed time: 0:00:00
# Errors: 0, Warnings: 0
vlog -reportprogress 300 -work work /home/quangphan2903/TUNI/Cadence/systemverilog/SystemVerilog/lab04-ctrl/typedefs.sv
# Model Technology ModelSim - Intel FPGA Edition vlog 2020.1_3 Compiler 2020.04 Apr 27 2020
# Start time: 12:49:14 on Jan 02,2021
# vlog -reportprogress 300 -work work /home/quangphan2903/TUNI/Cadence/systemverilog/SystemVerilog/lab04-ctrl/typedefs.sv 
# -- Compiling package typedefs
# 
# Top level modules:
# 	--none--
# End time: 12:49:14 on Jan 02,2021, Elapsed time: 0:00:00
# Errors: 0, Warnings: 0
vlog -reportprogress 300 -work work /home/quangphan2903/TUNI/Cadence/systemverilog/SystemVerilog/lab04-ctrl/control.sv
# Model Technology ModelSim - Intel FPGA Edition vlog 2020.1_3 Compiler 2020.04 Apr 27 2020
# Start time: 12:49:14 on Jan 02,2021
# vlog -reportprogress 300 -work work /home/quangphan2903/TUNI/Cadence/systemverilog/SystemVerilog/lab04-ctrl/control.sv 
# ** Error: /home/quangphan2903/TUNI/Cadence/systemverilog/SystemVerilog/lab04-ctrl/control.sv(51): (vlog-2730) Undefined variable: 'load_rd'.
# ** Error: /home/quangphan2903/TUNI/Cadence/systemverilog/SystemVerilog/lab04-ctrl/control.sv(54): (vlog-2730) Undefined variable: 'HALT'.
# ** Error: (vlog-13069) /home/quangphan2903/TUNI/Cadence/systemverilog/SystemVerilog/lab04-ctrl/control.sv(75): near "always_comb": syntax error, unexpected "SystemVerilog keyword 'always_comb'".
# ** Error: (vlog-13069) /home/quangphan2903/TUNI/Cadence/systemverilog/SystemVerilog/lab04-ctrl/control.sv(85): near "default": syntax error, unexpected default.
# End time: 12:49:14 on Jan 02,2021, Elapsed time: 0:00:00
# Errors: 4, Warnings: 0
vlog -reportprogress 300 -work work /home/quangphan2903/TUNI/Cadence/systemverilog/SystemVerilog/lab04-ctrl/control_test.sv
# Model Technology ModelSim - Intel FPGA Edition vlog 2020.1_3 Compiler 2020.04 Apr 27 2020
# Start time: 12:49:14 on Jan 02,2021
# vlog -reportprogress 300 -work work /home/quangphan2903/TUNI/Cadence/systemverilog/SystemVerilog/lab04-ctrl/control_test.sv 
# -- Compiling module control_test
# -- Importing package typedefs
# 
# Top level modules:
# 	control_test
# End time: 12:49:14 on Jan 02,2021, Elapsed time: 0:00:00
# Errors: 0, Warnings: 0
vcom
vlog -reportprogress 300 -work work /home/quangphan2903/TUNI/Cadence/systemverilog/SystemVerilog/lab04-ctrl/control.sv
# Model Technology ModelSim - Intel FPGA Edition vlog 2020.1_3 Compiler 2020.04 Apr 27 2020
# Start time: 12:50:50 on Jan 02,2021
# vlog -reportprogress 300 -work work /home/quangphan2903/TUNI/Cadence/systemverilog/SystemVerilog/lab04-ctrl/control.sv 
# -- Compiling package control_sv_unit
# -- Importing package typedefs
# -- Compiling module control
# 
# Top level modules:
# 	control
# End time: 12:50:50 on Jan 02,2021, Elapsed time: 0:00:00
# Errors: 0, Warnings: 0
vlog -reportprogress 300 -work work /home/quangphan2903/TUNI/Cadence/systemverilog/SystemVerilog/lab04-ctrl/control.sv
# Model Technology ModelSim - Intel FPGA Edition vlog 2020.1_3 Compiler 2020.04 Apr 27 2020
# Start time: 12:50:55 on Jan 02,2021
# vlog -reportprogress 300 -work work /home/quangphan2903/TUNI/Cadence/systemverilog/SystemVerilog/lab04-ctrl/control.sv 
# -- Compiling package control_sv_unit
# -- Importing package typedefs
# -- Compiling module control
# 
# Top level modules:
# 	control
# End time: 12:50:55 on Jan 02,2021, Elapsed time: 0:00:00
# Errors: 0, Warnings: 0
vsim work.control_test
# vsim work.control_test 
# Start time: 12:51:14 on Jan 02,2021
# Loading sv_std.std
# Loading work.typedefs
# Loading work.control_test
# Loading work.control_sv_unit
# Loading work.control
run -all
# ** Warning: (vsim-7) Failed to open readmem file "stimulus.pat" in read mode.
# No such file or directory. (errno = ENOENT)    : /home/quangphan2903/TUNI/Cadence/systemverilog/SystemVerilog/lab04-ctrl/control_test.sv(73)
#    Time: 0 ps  Iteration: 0  Instance: /control_test
# ** Warning: (vsim-7) Failed to open readmem file "response.pat" in read mode.
# No such file or directory. (errno = ENOENT)    : /home/quangphan2903/TUNI/Cadence/systemverilog/SystemVerilog/lab04-ctrl/control_test.sv(74)
#    Time: 0 ps  Iteration: 0  Instance: /control_test
#     0.0ns rst_=1 ph=INST_ADDR 	 zer=0 op=HLT rd=0 l_ir=0 hlt=0 inc=0 l_ac=0 l_pc=0 wr=0
#     5.0ns rst_=0 ph=INST_ADDR 	 zer=0 op=HLT rd=0 l_ir=0 hlt=0 inc=0 l_ac=0 l_pc=0 wr=0
#    15.0ns rst_=1 ph=INST_ADDR 	 zer=0 op=HLT rd=0 l_ir=0 hlt=0 inc=0 l_ac=0 l_pc=0 wr=0
#    20.0ns rst_=1 ph=INST_FETCH 	 zer=0 op=HLT rd=1 l_ir=0 hlt=0 inc=0 l_ac=0 l_pc=0 wr=0
# CONTROLLER TEST FAILED
# {mem_rd,load_ir,halt,inc_pc,load_ac,load_pc,mem_wr}
# is        1000000
# should be xxxxxxx
# state: INST_FETCH   opcode: HLT  zero: 0
# ** Note: $stop    : /home/quangphan2903/TUNI/Cadence/systemverilog/SystemVerilog/lab04-ctrl/control_test.sv(91)
#    Time: 25 ns  Iteration: 1  Instance: /control_test
# Break in NamedBeginStat ApplyStim at /home/quangphan2903/TUNI/Cadence/systemverilog/SystemVerilog/lab04-ctrl/control_test.sv line 91
quit -sim
# End time: 12:53:33 on Jan 02,2021, Elapsed time: 0:02:19
# Errors: 0, Warnings: 2
vcom
vlog -reportprogress 300 -work work /home/quangphan2903/TUNI/Cadence/systemverilog/SystemVerilog/lab04-ctrl/control.sv
# Model Technology ModelSim - Intel FPGA Edition vlog 2020.1_3 Compiler 2020.04 Apr 27 2020
# Start time: 12:53:39 on Jan 02,2021
# vlog -reportprogress 300 -work work /home/quangphan2903/TUNI/Cadence/systemverilog/SystemVerilog/lab04-ctrl/control.sv 
# -- Compiling package control_sv_unit
# -- Importing package typedefs
# -- Compiling module control
# 
# Top level modules:
# 	control
# End time: 12:53:39 on Jan 02,2021, Elapsed time: 0:00:00
# Errors: 0, Warnings: 0
vlog -reportprogress 300 -work work /home/quangphan2903/TUNI/Cadence/systemverilog/SystemVerilog/lab04-ctrl/typedefs.sv
# Model Technology ModelSim - Intel FPGA Edition vlog 2020.1_3 Compiler 2020.04 Apr 27 2020
# Start time: 12:53:39 on Jan 02,2021
# vlog -reportprogress 300 -work work /home/quangphan2903/TUNI/Cadence/systemverilog/SystemVerilog/lab04-ctrl/typedefs.sv 
# -- Compiling package typedefs
# 
# Top level modules:
# 	--none--
# End time: 12:53:39 on Jan 02,2021, Elapsed time: 0:00:00
# Errors: 0, Warnings: 0
vlog -reportprogress 300 -work work /home/quangphan2903/TUNI/Cadence/systemverilog/SystemVerilog/lab04-ctrl/control.sv
# Model Technology ModelSim - Intel FPGA Edition vlog 2020.1_3 Compiler 2020.04 Apr 27 2020
# Start time: 12:53:39 on Jan 02,2021
# vlog -reportprogress 300 -work work /home/quangphan2903/TUNI/Cadence/systemverilog/SystemVerilog/lab04-ctrl/control.sv 
# -- Compiling package control_sv_unit
# -- Importing package typedefs
# -- Compiling module control
# 
# Top level modules:
# 	control
# End time: 12:53:39 on Jan 02,2021, Elapsed time: 0:00:00
# Errors: 0, Warnings: 0
vlog -reportprogress 300 -work work /home/quangphan2903/TUNI/Cadence/systemverilog/SystemVerilog/lab04-ctrl/control_test.sv
# Model Technology ModelSim - Intel FPGA Edition vlog 2020.1_3 Compiler 2020.04 Apr 27 2020
# Start time: 12:53:39 on Jan 02,2021
# vlog -reportprogress 300 -work work /home/quangphan2903/TUNI/Cadence/systemverilog/SystemVerilog/lab04-ctrl/control_test.sv 
# -- Compiling module control_test
# -- Importing package typedefs
# 
# Top level modules:
# 	control_test
# End time: 12:53:39 on Jan 02,2021, Elapsed time: 0:00:00
# Errors: 0, Warnings: 0
vsim work.control_test
# vsim work.control_test 
# Start time: 12:53:45 on Jan 02,2021
# Loading sv_std.std
# Loading work.typedefs
# Loading work.control_test
# Loading work.control_sv_unit
# Loading work.control
run -all
#     0.0ns rst_=1 ph=INST_ADDR 	 zer=0 op=HLT rd=0 l_ir=0 hlt=0 inc=0 l_ac=0 l_pc=0 wr=0
#     5.0ns rst_=0 ph=INST_ADDR 	 zer=0 op=HLT rd=0 l_ir=0 hlt=0 inc=0 l_ac=0 l_pc=0 wr=0
#    15.0ns rst_=1 ph=INST_ADDR 	 zer=0 op=HLT rd=0 l_ir=0 hlt=0 inc=0 l_ac=0 l_pc=0 wr=0
#    20.0ns rst_=1 ph=INST_FETCH 	 zer=0 op=HLT rd=1 l_ir=0 hlt=0 inc=0 l_ac=0 l_pc=0 wr=0
#    30.0ns rst_=1 ph=INST_LOAD 	 zer=0 op=HLT rd=1 l_ir=1 hlt=0 inc=0 l_ac=0 l_pc=0 wr=0
#    40.0ns rst_=1 ph=IDLE 	 zer=0 op=HLT rd=1 l_ir=1 hlt=0 inc=0 l_ac=0 l_pc=0 wr=0
#    50.0ns rst_=1 ph=OP_ADDR 	 zer=0 op=HLT rd=1 l_ir=1 hlt=1 inc=1 l_ac=0 l_pc=0 wr=0
# CONTROLLER TEST FAILED
# {mem_rd,load_ir,halt,inc_pc,load_ac,load_pc,mem_wr}
# is        1111000
# should be 0011000
# state: OP_ADDR   opcode: HLT  zero: 0
# ** Note: $stop    : /home/quangphan2903/TUNI/Cadence/systemverilog/SystemVerilog/lab04-ctrl/control_test.sv(91)
#    Time: 55 ns  Iteration: 1  Instance: /control_test
# Break in NamedBeginStat ApplyStim at /home/quangphan2903/TUNI/Cadence/systemverilog/SystemVerilog/lab04-ctrl/control_test.sv line 91
quit -sim
# End time: 12:57:29 on Jan 02,2021, Elapsed time: 0:03:44
# Errors: 0, Warnings: 0
vcom
vlog -reportprogress 300 -work work /home/quangphan2903/TUNI/Cadence/systemverilog/SystemVerilog/lab04-ctrl/control.sv
# Model Technology ModelSim - Intel FPGA Edition vlog 2020.1_3 Compiler 2020.04 Apr 27 2020
# Start time: 12:57:34 on Jan 02,2021
# vlog -reportprogress 300 -work work /home/quangphan2903/TUNI/Cadence/systemverilog/SystemVerilog/lab04-ctrl/control.sv 
# -- Compiling package control_sv_unit
# -- Importing package typedefs
# -- Compiling module control
# 
# Top level modules:
# 	control
# End time: 12:57:34 on Jan 02,2021, Elapsed time: 0:00:00
# Errors: 0, Warnings: 0
vsim work.control_test
# vsim work.control_test 
# Start time: 12:57:37 on Jan 02,2021
# Loading sv_std.std
# Loading work.typedefs
# Loading work.control_test
# Loading work.control_sv_unit
# Loading work.control
run -all
#     0.0ns rst_=1 ph=INST_ADDR 	 zer=0 op=HLT rd=0 l_ir=0 hlt=0 inc=0 l_ac=0 l_pc=0 wr=0
#     5.0ns rst_=0 ph=INST_ADDR 	 zer=0 op=HLT rd=0 l_ir=0 hlt=0 inc=0 l_ac=0 l_pc=0 wr=0
#    15.0ns rst_=1 ph=INST_ADDR 	 zer=0 op=HLT rd=0 l_ir=0 hlt=0 inc=0 l_ac=0 l_pc=0 wr=0
#    20.0ns rst_=1 ph=INST_FETCH 	 zer=0 op=HLT rd=1 l_ir=0 hlt=0 inc=0 l_ac=0 l_pc=0 wr=0
#    30.0ns rst_=1 ph=INST_LOAD 	 zer=0 op=HLT rd=1 l_ir=1 hlt=0 inc=0 l_ac=0 l_pc=0 wr=0
#    40.0ns rst_=1 ph=IDLE 	 zer=0 op=HLT rd=1 l_ir=1 hlt=0 inc=0 l_ac=0 l_pc=0 wr=0
#    50.0ns rst_=1 ph=OP_ADDR 	 zer=0 op=HLT rd=0 l_ir=0 hlt=1 inc=1 l_ac=0 l_pc=0 wr=0
#    60.0ns rst_=1 ph=OP_FETCH 	 zer=0 op=HLT rd=0 l_ir=0 hlt=0 inc=0 l_ac=0 l_pc=0 wr=0
#    70.0ns rst_=1 ph=ALU_OP 	 zer=0 op=HLT rd=0 l_ir=0 hlt=0 inc=0 l_ac=0 l_pc=0 wr=0
#    80.0ns rst_=1 ph=STORE 	 zer=0 op=HLT rd=0 l_ir=0 hlt=0 inc=0 l_ac=0 l_pc=0 wr=0
#    90.0ns rst_=1 ph=INST_ADDR 	 zer=0 op=HLT rd=0 l_ir=0 hlt=0 inc=0 l_ac=0 l_pc=0 wr=0
#   100.0ns rst_=1 ph=INST_FETCH 	 zer=0 op=HLT rd=1 l_ir=0 hlt=0 inc=0 l_ac=0 l_pc=0 wr=0
#   110.0ns rst_=1 ph=INST_LOAD 	 zer=0 op=HLT rd=1 l_ir=1 hlt=0 inc=0 l_ac=0 l_pc=0 wr=0
#   120.0ns rst_=1 ph=IDLE 	 zer=0 op=HLT rd=1 l_ir=1 hlt=0 inc=0 l_ac=0 l_pc=0 wr=0
#   130.0ns rst_=1 ph=OP_ADDR 	 zer=0 op=HLT rd=0 l_ir=0 hlt=1 inc=1 l_ac=0 l_pc=0 wr=0
#   140.0ns rst_=1 ph=OP_FETCH 	 zer=0 op=HLT rd=0 l_ir=0 hlt=0 inc=0 l_ac=0 l_pc=0 wr=0
#   150.0ns rst_=1 ph=ALU_OP 	 zer=0 op=HLT rd=0 l_ir=0 hlt=0 inc=0 l_ac=0 l_pc=0 wr=0
#   160.0ns rst_=1 ph=STORE 	 zer=0 op=HLT rd=0 l_ir=0 hlt=0 inc=0 l_ac=0 l_pc=0 wr=0
#   165.0ns rst_=1 ph=STORE 	 zer=0 op=SKZ rd=0 l_ir=0 hlt=0 inc=0 l_ac=0 l_pc=0 wr=0
#   170.0ns rst_=1 ph=INST_ADDR 	 zer=0 op=SKZ rd=0 l_ir=0 hlt=0 inc=0 l_ac=0 l_pc=0 wr=0
#   180.0ns rst_=1 ph=INST_FETCH 	 zer=0 op=SKZ rd=1 l_ir=0 hlt=0 inc=0 l_ac=0 l_pc=0 wr=0
#   190.0ns rst_=1 ph=INST_LOAD 	 zer=0 op=SKZ rd=1 l_ir=1 hlt=0 inc=0 l_ac=0 l_pc=0 wr=0
#   200.0ns rst_=1 ph=IDLE 	 zer=0 op=SKZ rd=1 l_ir=1 hlt=0 inc=0 l_ac=0 l_pc=0 wr=0
#   210.0ns rst_=1 ph=OP_ADDR 	 zer=0 op=SKZ rd=0 l_ir=0 hlt=0 inc=1 l_ac=0 l_pc=0 wr=0
#   220.0ns rst_=1 ph=OP_FETCH 	 zer=0 op=SKZ rd=0 l_ir=0 hlt=0 inc=0 l_ac=0 l_pc=0 wr=0
#   230.0ns rst_=1 ph=ALU_OP 	 zer=0 op=SKZ rd=0 l_ir=0 hlt=0 inc=0 l_ac=0 l_pc=0 wr=0
#   240.0ns rst_=1 ph=STORE 	 zer=0 op=SKZ rd=0 l_ir=0 hlt=0 inc=0 l_ac=0 l_pc=0 wr=0
#   245.0ns rst_=1 ph=STORE 	 zer=0 op=ADD rd=0 l_ir=0 hlt=0 inc=0 l_ac=0 l_pc=0 wr=0
#   250.0ns rst_=1 ph=INST_ADDR 	 zer=0 op=ADD rd=0 l_ir=0 hlt=0 inc=0 l_ac=0 l_pc=0 wr=0
#   260.0ns rst_=1 ph=INST_FETCH 	 zer=0 op=ADD rd=1 l_ir=0 hlt=0 inc=0 l_ac=0 l_pc=0 wr=0
#   270.0ns rst_=1 ph=INST_LOAD 	 zer=0 op=ADD rd=1 l_ir=1 hlt=0 inc=0 l_ac=0 l_pc=0 wr=0
#   280.0ns rst_=1 ph=IDLE 	 zer=0 op=ADD rd=1 l_ir=1 hlt=0 inc=0 l_ac=0 l_pc=0 wr=0
#   290.0ns rst_=1 ph=OP_ADDR 	 zer=0 op=ADD rd=0 l_ir=0 hlt=0 inc=1 l_ac=0 l_pc=0 wr=0
#   300.0ns rst_=1 ph=OP_FETCH 	 zer=0 op=ADD rd=1 l_ir=0 hlt=0 inc=0 l_ac=0 l_pc=0 wr=0
#   310.0ns rst_=1 ph=ALU_OP 	 zer=0 op=ADD rd=1 l_ir=0 hlt=0 inc=0 l_ac=1 l_pc=0 wr=0
#   320.0ns rst_=1 ph=STORE 	 zer=0 op=ADD rd=1 l_ir=0 hlt=0 inc=0 l_ac=1 l_pc=0 wr=0
#   325.0ns rst_=1 ph=STORE 	 zer=0 op=AND rd=1 l_ir=0 hlt=0 inc=0 l_ac=1 l_pc=0 wr=0
#   330.0ns rst_=1 ph=INST_ADDR 	 zer=0 op=AND rd=0 l_ir=0 hlt=0 inc=0 l_ac=0 l_pc=0 wr=0
#   340.0ns rst_=1 ph=INST_FETCH 	 zer=0 op=AND rd=1 l_ir=0 hlt=0 inc=0 l_ac=0 l_pc=0 wr=0
#   350.0ns rst_=1 ph=INST_LOAD 	 zer=0 op=AND rd=1 l_ir=1 hlt=0 inc=0 l_ac=0 l_pc=0 wr=0
#   360.0ns rst_=1 ph=IDLE 	 zer=0 op=AND rd=1 l_ir=1 hlt=0 inc=0 l_ac=0 l_pc=0 wr=0
#   370.0ns rst_=1 ph=OP_ADDR 	 zer=0 op=AND rd=0 l_ir=0 hlt=0 inc=1 l_ac=0 l_pc=0 wr=0
#   380.0ns rst_=1 ph=OP_FETCH 	 zer=0 op=AND rd=1 l_ir=0 hlt=0 inc=0 l_ac=0 l_pc=0 wr=0
#   390.0ns rst_=1 ph=ALU_OP 	 zer=0 op=AND rd=1 l_ir=0 hlt=0 inc=0 l_ac=1 l_pc=0 wr=0
#   400.0ns rst_=1 ph=STORE 	 zer=0 op=AND rd=1 l_ir=0 hlt=0 inc=0 l_ac=1 l_pc=0 wr=0
#   405.0ns rst_=1 ph=STORE 	 zer=0 op=XOR rd=1 l_ir=0 hlt=0 inc=0 l_ac=1 l_pc=0 wr=0
#   410.0ns rst_=1 ph=INST_ADDR 	 zer=0 op=XOR rd=0 l_ir=0 hlt=0 inc=0 l_ac=0 l_pc=0 wr=0
#   420.0ns rst_=1 ph=INST_FETCH 	 zer=0 op=XOR rd=1 l_ir=0 hlt=0 inc=0 l_ac=0 l_pc=0 wr=0
#   430.0ns rst_=1 ph=INST_LOAD 	 zer=0 op=XOR rd=1 l_ir=1 hlt=0 inc=0 l_ac=0 l_pc=0 wr=0
#   440.0ns rst_=1 ph=IDLE 	 zer=0 op=XOR rd=1 l_ir=1 hlt=0 inc=0 l_ac=0 l_pc=0 wr=0
#   450.0ns rst_=1 ph=OP_ADDR 	 zer=0 op=XOR rd=0 l_ir=0 hlt=0 inc=1 l_ac=0 l_pc=0 wr=0
#   460.0ns rst_=1 ph=OP_FETCH 	 zer=0 op=XOR rd=1 l_ir=0 hlt=0 inc=0 l_ac=0 l_pc=0 wr=0
#   470.0ns rst_=1 ph=ALU_OP 	 zer=0 op=XOR rd=1 l_ir=0 hlt=0 inc=0 l_ac=1 l_pc=0 wr=0
#   480.0ns rst_=1 ph=STORE 	 zer=0 op=XOR rd=1 l_ir=0 hlt=0 inc=0 l_ac=1 l_pc=0 wr=0
#   485.0ns rst_=1 ph=STORE 	 zer=0 op=LDA rd=1 l_ir=0 hlt=0 inc=0 l_ac=1 l_pc=0 wr=0
#   490.0ns rst_=1 ph=INST_ADDR 	 zer=0 op=LDA rd=0 l_ir=0 hlt=0 inc=0 l_ac=0 l_pc=0 wr=0
#   500.0ns rst_=1 ph=INST_FETCH 	 zer=0 op=LDA rd=1 l_ir=0 hlt=0 inc=0 l_ac=0 l_pc=0 wr=0
#   510.0ns rst_=1 ph=INST_LOAD 	 zer=0 op=LDA rd=1 l_ir=1 hlt=0 inc=0 l_ac=0 l_pc=0 wr=0
#   520.0ns rst_=1 ph=IDLE 	 zer=0 op=LDA rd=1 l_ir=1 hlt=0 inc=0 l_ac=0 l_pc=0 wr=0
#   530.0ns rst_=1 ph=OP_ADDR 	 zer=0 op=LDA rd=0 l_ir=0 hlt=0 inc=1 l_ac=0 l_pc=0 wr=0
#   540.0ns rst_=1 ph=OP_FETCH 	 zer=0 op=LDA rd=1 l_ir=0 hlt=0 inc=0 l_ac=0 l_pc=0 wr=0
#   550.0ns rst_=1 ph=ALU_OP 	 zer=0 op=LDA rd=1 l_ir=0 hlt=0 inc=0 l_ac=1 l_pc=0 wr=0
#   560.0ns rst_=1 ph=STORE 	 zer=0 op=LDA rd=1 l_ir=0 hlt=0 inc=0 l_ac=1 l_pc=0 wr=0
#   565.0ns rst_=1 ph=STORE 	 zer=0 op=STO rd=1 l_ir=0 hlt=0 inc=0 l_ac=1 l_pc=0 wr=0
#   570.0ns rst_=1 ph=INST_ADDR 	 zer=0 op=STO rd=0 l_ir=0 hlt=0 inc=0 l_ac=0 l_pc=0 wr=0
#   580.0ns rst_=1 ph=INST_FETCH 	 zer=0 op=STO rd=1 l_ir=0 hlt=0 inc=0 l_ac=0 l_pc=0 wr=0
#   590.0ns rst_=1 ph=INST_LOAD 	 zer=0 op=STO rd=1 l_ir=1 hlt=0 inc=0 l_ac=0 l_pc=0 wr=0
#   600.0ns rst_=1 ph=IDLE 	 zer=0 op=STO rd=1 l_ir=1 hlt=0 inc=0 l_ac=0 l_pc=0 wr=0
#   610.0ns rst_=1 ph=OP_ADDR 	 zer=0 op=STO rd=0 l_ir=0 hlt=0 inc=1 l_ac=0 l_pc=0 wr=0
#   620.0ns rst_=1 ph=OP_FETCH 	 zer=0 op=STO rd=0 l_ir=0 hlt=0 inc=0 l_ac=0 l_pc=0 wr=0
#   630.0ns rst_=1 ph=ALU_OP 	 zer=0 op=STO rd=0 l_ir=0 hlt=0 inc=0 l_ac=0 l_pc=0 wr=0
#   640.0ns rst_=1 ph=STORE 	 zer=0 op=STO rd=0 l_ir=0 hlt=0 inc=0 l_ac=0 l_pc=0 wr=1
#   645.0ns rst_=1 ph=STORE 	 zer=0 op=JMP rd=0 l_ir=0 hlt=0 inc=0 l_ac=0 l_pc=0 wr=1
#   650.0ns rst_=1 ph=INST_ADDR 	 zer=0 op=JMP rd=0 l_ir=0 hlt=0 inc=0 l_ac=0 l_pc=0 wr=0
#   660.0ns rst_=1 ph=INST_FETCH 	 zer=0 op=JMP rd=1 l_ir=0 hlt=0 inc=0 l_ac=0 l_pc=0 wr=0
#   670.0ns rst_=1 ph=INST_LOAD 	 zer=0 op=JMP rd=1 l_ir=1 hlt=0 inc=0 l_ac=0 l_pc=0 wr=0
#   680.0ns rst_=1 ph=IDLE 	 zer=0 op=JMP rd=1 l_ir=1 hlt=0 inc=0 l_ac=0 l_pc=0 wr=0
#   690.0ns rst_=1 ph=OP_ADDR 	 zer=0 op=JMP rd=0 l_ir=0 hlt=0 inc=1 l_ac=0 l_pc=0 wr=0
#   700.0ns rst_=1 ph=OP_FETCH 	 zer=0 op=JMP rd=0 l_ir=0 hlt=0 inc=0 l_ac=0 l_pc=0 wr=0
#   710.0ns rst_=1 ph=ALU_OP 	 zer=0 op=JMP rd=0 l_ir=0 hlt=0 inc=0 l_ac=0 l_pc=1 wr=0
#   720.0ns rst_=1 ph=STORE 	 zer=0 op=JMP rd=0 l_ir=0 hlt=0 inc=1 l_ac=0 l_pc=1 wr=0
#   725.0ns rst_=1 ph=STORE 	 zer=1 op=HLT rd=0 l_ir=0 hlt=0 inc=1 l_ac=0 l_pc=1 wr=0
#   730.0ns rst_=1 ph=INST_ADDR 	 zer=1 op=HLT rd=0 l_ir=0 hlt=0 inc=0 l_ac=0 l_pc=0 wr=0
#   740.0ns rst_=1 ph=INST_FETCH 	 zer=1 op=HLT rd=1 l_ir=0 hlt=0 inc=0 l_ac=0 l_pc=0 wr=0
#   750.0ns rst_=1 ph=INST_LOAD 	 zer=1 op=HLT rd=1 l_ir=1 hlt=0 inc=0 l_ac=0 l_pc=0 wr=0
#   760.0ns rst_=1 ph=IDLE 	 zer=1 op=HLT rd=1 l_ir=1 hlt=0 inc=0 l_ac=0 l_pc=0 wr=0
#   770.0ns rst_=1 ph=OP_ADDR 	 zer=1 op=HLT rd=0 l_ir=0 hlt=1 inc=1 l_ac=0 l_pc=0 wr=0
#   780.0ns rst_=1 ph=OP_FETCH 	 zer=1 op=HLT rd=0 l_ir=0 hlt=0 inc=0 l_ac=0 l_pc=0 wr=0
#   790.0ns rst_=1 ph=ALU_OP 	 zer=1 op=HLT rd=0 l_ir=0 hlt=0 inc=0 l_ac=0 l_pc=0 wr=0
#   800.0ns rst_=1 ph=STORE 	 zer=1 op=HLT rd=0 l_ir=0 hlt=0 inc=0 l_ac=0 l_pc=0 wr=0
#   805.0ns rst_=1 ph=STORE 	 zer=1 op=SKZ rd=0 l_ir=0 hlt=0 inc=0 l_ac=0 l_pc=0 wr=0
#   810.0ns rst_=1 ph=INST_ADDR 	 zer=1 op=SKZ rd=0 l_ir=0 hlt=0 inc=0 l_ac=0 l_pc=0 wr=0
#   820.0ns rst_=1 ph=INST_FETCH 	 zer=1 op=SKZ rd=1 l_ir=0 hlt=0 inc=0 l_ac=0 l_pc=0 wr=0
#   830.0ns rst_=1 ph=INST_LOAD 	 zer=1 op=SKZ rd=1 l_ir=1 hlt=0 inc=0 l_ac=0 l_pc=0 wr=0
#   840.0ns rst_=1 ph=IDLE 	 zer=1 op=SKZ rd=1 l_ir=1 hlt=0 inc=0 l_ac=0 l_pc=0 wr=0
#   850.0ns rst_=1 ph=OP_ADDR 	 zer=1 op=SKZ rd=0 l_ir=0 hlt=0 inc=1 l_ac=0 l_pc=0 wr=0
#   860.0ns rst_=1 ph=OP_FETCH 	 zer=1 op=SKZ rd=0 l_ir=0 hlt=0 inc=0 l_ac=0 l_pc=0 wr=0
#   870.0ns rst_=1 ph=ALU_OP 	 zer=1 op=SKZ rd=0 l_ir=0 hlt=0 inc=1 l_ac=0 l_pc=0 wr=0
#   880.0ns rst_=1 ph=STORE 	 zer=1 op=SKZ rd=0 l_ir=0 hlt=0 inc=0 l_ac=0 l_pc=0 wr=0
#   885.0ns rst_=1 ph=STORE 	 zer=1 op=ADD rd=0 l_ir=0 hlt=0 inc=0 l_ac=0 l_pc=0 wr=0
#   890.0ns rst_=1 ph=INST_ADDR 	 zer=1 op=ADD rd=0 l_ir=0 hlt=0 inc=0 l_ac=0 l_pc=0 wr=0
#   900.0ns rst_=1 ph=INST_FETCH 	 zer=1 op=ADD rd=1 l_ir=0 hlt=0 inc=0 l_ac=0 l_pc=0 wr=0
#   910.0ns rst_=1 ph=INST_LOAD 	 zer=1 op=ADD rd=1 l_ir=1 hlt=0 inc=0 l_ac=0 l_pc=0 wr=0
#   920.0ns rst_=1 ph=IDLE 	 zer=1 op=ADD rd=1 l_ir=1 hlt=0 inc=0 l_ac=0 l_pc=0 wr=0
#   930.0ns rst_=1 ph=OP_ADDR 	 zer=1 op=ADD rd=0 l_ir=0 hlt=0 inc=1 l_ac=0 l_pc=0 wr=0
#   940.0ns rst_=1 ph=OP_FETCH 	 zer=1 op=ADD rd=1 l_ir=0 hlt=0 inc=0 l_ac=0 l_pc=0 wr=0
#   950.0ns rst_=1 ph=ALU_OP 	 zer=1 op=ADD rd=1 l_ir=0 hlt=0 inc=0 l_ac=1 l_pc=0 wr=0
#   960.0ns rst_=1 ph=STORE 	 zer=1 op=ADD rd=1 l_ir=0 hlt=0 inc=0 l_ac=1 l_pc=0 wr=0
